<?xml version="1.0" encoding="iso-8859-1"?>
<!-- Generator: Adobe Illustrator 16.0.0, SVG Export Plug-In . SVG Version: 6.00 Build 0)  -->
<!DOCTYPE svg PUBLIC "-//W3C//DTD SVG 1.1//EN" "http://www.w3.org/Graphics/SVG/1.1/DTD/svg11.dtd">
<svg xmlns="http://www.w3.org/2000/svg" xmlns:xlink="http://www.w3.org/1999/xlink" version="1.1" id="Capa_1" x="0px" y="0px" width="512px" height="512px" viewBox="0 0 554.962 554.962" style="enable-background:new 0 0 554.962 554.962;" xml:space="preserve">
<g>
	<g>
		<path d="M530.5,148.633H404.826v162.155c0,23.611-19.211,42.822-42.822,42.822H168.49v54.297    c0,13.506,10.949,24.461,24.461,24.461h190.118l79.443,66.354c10.367,8.66,15.942,5.098,12.454-7.949l-15.521-58.012    c-0.036-0.135-0.109-0.258-0.146-0.393h71.2c13.507,0,24.462-10.949,24.462-24.461V173.088    C554.955,159.582,544.007,148.633,530.5,148.633z" fill="#d43943"/>
		<path d="M24.461,335.243h37.394c-0.037,0.135-0.11,0.258-0.147,0.393l-15.521,58.012c-2.203,8.225-0.795,12.68,3.134,12.68    c2.307,0,5.483-1.529,9.314-4.73l79.444-66.354h30.417h193.515c13.507,0,24.461-10.947,24.461-24.461V148.633V75.97    c0-13.507-10.948-24.461-24.461-24.461H24.461C10.955,51.509,0,62.458,0,75.97v234.812C0,324.296,10.949,335.243,24.461,335.243z" fill="#d43943"/>
	</g>
</g>
<g>
</g>
<g>
</g>
<g>
</g>
<g>
</g>
<g>
</g>
<g>
</g>
<g>
</g>
<g>
</g>
<g>
</g>
<g>
</g>
<g>
</g>
<g>
</g>
<g>
</g>
<g>
</g>
<g>
</g>
</svg>
