<svg xmlns="http://www.w3.org/2000/svg" width="24" height="23" viewBox="0 0 24 23">
  <metadata><?xpacket begin="﻿" id="W5M0MpCehiHzreSzNTczkc9d"?>
<x:xmpmeta xmlns:x="adobe:ns:meta/" x:xmptk="Adobe XMP Core 5.6-c138 79.159824, 2016/09/14-01:09:01        ">
   <rdf:RDF xmlns:rdf="http://www.w3.org/1999/02/22-rdf-syntax-ns#">
      <rdf:Description rdf:about=""/>
   </rdf:RDF>
</x:xmpmeta>
                                                                                                    
                                                                                                    
                                                                                                    
                                                                                                    
                                                                                                    
                                                                                                    
                                                                                                    
                                                                                                    
                                                                                                    
                                                                                                    
                                                                                                    
                                                                                                    
                                                                                                    
                                                                                                    
                                                                                                    
                                                                                                    
                                                                                                    
                                                                                                    
                                                                                                    
                                                                                                    
                           
<?xpacket end="w"?></metadata>
<defs>
    <style>
      .cls-1 {
        fill: #043165;
      }

      .cls-1, .cls-2 {
        fill-rule: evenodd;
      }

      .cls-2 {
        fill: #fff;
      }
    </style>
  </defs>
  <path id="Forma_1_copy_3" data-name="Forma 1 copy 3" class="cls-1" d="M19.792,0H4.208A4.21,4.21,0,0,0,0,4.2v9.6a4.21,4.21,0,0,0,4.208,4.2h9.927l4.752,4.746a0.842,0.842,0,0,0,1.437-.594V17.974A4.211,4.211,0,0,0,24,13.8V4.2A4.21,4.21,0,0,0,19.792,0Z"/>
  <path id="Forma_1" data-name="Forma 1" class="cls-2" d="M18.194,5.952H5.806a0.841,0.841,0,1,0,0,1.681H18.194A0.841,0.841,0,1,0,18.194,5.952Zm0,4.707H5.806a0.841,0.841,0,1,0,0,1.681H18.194A0.841,0.841,0,1,0,18.194,10.659Z"/>
</svg>
