<svg 
 xmlns="http://www.w3.org/2000/svg"
 xmlns:xlink="http://www.w3.org/1999/xlink"
 width="33px" height="32px">
<path fill-rule="evenodd"  fill="rgb(255, 255, 255)"
 d="M16.183,0.003 C7.262,0.003 0.004,7.179 0.004,15.999 C0.004,24.819 7.262,31.995 16.183,31.995 C25.104,31.995 32.362,24.819 32.362,15.999 C32.362,7.179 25.104,0.003 16.183,0.003 ZM20.206,16.562 L17.574,16.562 C17.574,20.720 17.574,25.839 17.574,25.839 L13.674,25.839 C13.674,25.839 13.674,20.770 13.674,16.562 L11.820,16.562 L11.820,13.284 L13.674,13.284 L13.674,11.164 C13.674,9.645 14.404,7.272 17.610,7.272 L20.499,7.283 L20.499,10.465 C20.499,10.465 18.743,10.465 18.401,10.465 C18.060,10.465 17.575,10.634 17.575,11.358 L17.575,13.284 L20.547,13.284 L20.206,16.562 Z"/>
</svg>