<svg 
 xmlns="http://www.w3.org/2000/svg"
 xmlns:xlink="http://www.w3.org/1999/xlink"
 width="33px" height="32px">
<path fill-rule="evenodd"  fill="rgb(255, 255, 255)"
 d="M16.816,31.995 C7.894,31.995 0.636,24.819 0.636,15.999 C0.636,7.179 7.894,0.003 16.816,0.003 C25.737,0.003 32.995,7.179 32.995,15.999 C32.995,24.819 25.737,31.995 16.816,31.995 ZM26.017,14.132 L26.017,10.419 C26.017,8.479 24.422,6.903 22.460,6.903 L11.171,6.903 C9.209,6.903 7.614,8.479 7.614,10.419 L7.614,14.132 L7.614,21.581 C7.614,23.521 9.209,25.097 11.171,25.097 L22.461,25.097 C24.422,25.097 26.017,23.521 26.017,21.581 L26.017,14.132 ZM22.459,23.323 L11.170,23.323 C10.197,23.323 9.406,22.543 9.406,21.581 L9.406,14.132 L12.153,14.132 C11.916,14.708 11.783,15.339 11.783,15.999 C11.783,18.742 14.040,20.975 16.816,20.975 C19.591,20.975 21.848,18.742 21.848,15.999 C21.848,15.339 21.713,14.708 21.475,14.132 L24.223,14.132 L24.223,21.581 C24.223,22.543 23.432,23.323 22.459,23.323 ZM20.768,9.008 L23.481,8.999 L23.888,8.998 L23.888,9.397 L23.888,12.082 L20.779,12.092 L20.768,9.008 ZM16.815,19.201 C15.029,19.201 13.575,17.764 13.576,15.999 C13.577,15.301 13.805,14.658 14.189,14.132 C14.778,13.325 15.734,12.797 16.816,12.797 C17.896,12.797 18.853,13.326 19.442,14.132 C19.825,14.658 20.055,15.302 20.055,15.999 C20.055,17.765 18.600,19.201 16.815,19.201 Z"/>
</svg>