<svg xmlns="http://www.w3.org/2000/svg" width="14" height="14" viewBox="0 0 14 14">
  <metadata><?xpacket begin="﻿" id="W5M0MpCehiHzreSzNTczkc9d"?>
<x:xmpmeta xmlns:x="adobe:ns:meta/" x:xmptk="Adobe XMP Core 5.6-c138 79.159824, 2016/09/14-01:09:01        ">
   <rdf:RDF xmlns:rdf="http://www.w3.org/1999/02/22-rdf-syntax-ns#">
      <rdf:Description rdf:about=""/>
   </rdf:RDF>
</x:xmpmeta>
                                                                                                    
                                                                                                    
                                                                                                    
                                                                                                    
                                                                                                    
                                                                                                    
                                                                                                    
                                                                                                    
                                                                                                    
                                                                                                    
                                                                                                    
                                                                                                    
                                                                                                    
                                                                                                    
                                                                                                    
                                                                                                    
                                                                                                    
                                                                                                    
                                                                                                    
                                                                                                    
                           
<?xpacket end="w"?></metadata>
<defs>
    <style>
      .cls-1 {
        fill: #043165;
        fill-rule: evenodd;
      }
    </style>
  </defs>
  <path id="key" class="cls-1" d="M1217.88,196.027a0.383,0.383,0,0,0-.64-0.177l-1.69,1.687a0.963,0.963,0,0,1-1.36,0l-0.78-.774a0.967,0.967,0,0,1,0-1.356l1.68-1.666a0.38,0.38,0,0,0-.19-0.636,4,4,0,0,0-1.24-.091,4.214,4.214,0,0,0-3.68,3.729,3.988,3.988,0,0,0,.38,1.952l-5.92,5.067a1.266,1.266,0,0,0-.44.905,1.3,1.3,0,0,0,.36.938l1.01,1.018a1.267,1.267,0,0,0,1.86-.06l5.13-5.917a4.012,4.012,0,0,0,1.89.342,4.216,4.216,0,0,0,3.74-3.691A4.1,4.1,0,0,0,1217.88,196.027Z" transform="translate(-1204 -193)"/>
</svg>
