<svg 
 xmlns="http://www.w3.org/2000/svg"
 xmlns:xlink="http://www.w3.org/1999/xlink"
 width="106px" height="95px">
<path fill-rule="evenodd"  fill="#123163"
 d="M105.788,87.637 L101.586,72.707 C101.486,72.400 101.286,72.093 101.086,71.889 C98.485,63.810 92.083,57.572 83.979,55.425 L82.779,55.220 C80.978,54.709 78.977,55.323 77.677,56.857 C73.275,61.970 67.672,62.379 61.770,62.379 C55.867,62.379 50.265,61.970 45.863,56.857 C44.563,55.323 42.562,54.709 40.761,55.220 L39.561,55.527 C33.458,57.163 28.256,61.152 24.954,66.469 L12.349,66.469 C12.249,66.469 12.249,66.469 12.149,66.367 C12.149,66.265 12.049,66.162 12.049,65.958 L14.650,56.448 C16.951,48.983 21.353,46.733 29.957,44.483 C30.357,44.381 30.657,44.176 30.857,43.972 C31.557,44.585 32.358,45.097 33.158,45.506 C33.458,45.710 33.758,45.710 34.058,45.710 C34.759,45.710 35.459,45.301 35.859,44.585 C36.359,43.563 35.959,42.336 34.959,41.824 C30.357,39.370 27.055,32.417 27.055,25.258 C27.055,18.918 32.157,13.703 38.360,13.703 C39.561,13.703 40.661,13.907 41.761,14.214 C40.661,16.975 40.061,19.941 40.061,23.111 C40.061,40.597 50.365,55.323 62.570,55.323 C74.575,55.323 85.180,40.290 85.180,23.111 C85.180,10.328 75.075,0.000 62.570,0.000 C54.667,0.000 47.664,4.193 43.662,10.533 C41.961,9.919 40.161,9.613 38.360,9.613 C32.958,9.613 28.156,12.578 25.455,16.975 C25.255,16.771 25.054,16.668 24.854,16.566 C23.354,15.748 21.853,15.441 20.152,15.441 C14.550,15.339 10.048,19.941 10.048,25.667 C10.048,28.940 10.949,32.008 12.349,34.462 C7.747,35.689 3.646,37.529 1.745,43.767 L0.144,49.698 C-0.156,50.721 0.044,51.846 0.644,52.664 C1.244,53.584 2.345,54.096 3.445,54.096 L11.149,54.096 C11.049,54.505 10.848,54.914 10.748,55.323 L8.147,64.935 C7.747,66.265 8.047,67.696 8.948,68.821 C9.748,69.946 10.949,70.560 12.349,70.560 L22.954,70.560 C22.654,71.275 22.453,71.991 22.253,72.707 L18.052,87.739 C17.651,89.478 17.952,91.318 19.052,92.750 C20.152,94.182 21.753,95.000 23.454,95.000 L83.479,95.000 L86.880,95.000 L100.386,95.000 C102.087,95.000 103.787,94.182 104.788,92.750 C105.888,91.318 106.288,89.478 105.788,87.637 ZM46.063,14.521 C46.163,14.419 46.263,14.317 46.363,14.112 C46.463,14.010 46.463,13.805 46.563,13.703 C49.665,7.976 55.667,4.090 62.570,4.090 C70.874,4.090 77.877,9.715 80.278,17.384 C76.776,18.100 73.075,16.668 70.874,13.601 C70.173,12.680 68.973,12.476 68.073,13.192 C67.672,13.498 67.472,13.805 67.372,14.214 C67.272,14.317 67.272,14.419 67.172,14.521 C64.371,20.350 54.967,22.804 44.263,20.657 C44.563,18.509 45.163,16.464 46.063,14.521 ZM51.666,25.463 C59.669,25.463 66.272,22.906 69.673,18.100 C72.174,20.350 75.275,21.577 78.577,21.577 C79.377,21.577 80.278,21.475 81.078,21.270 C81.178,21.884 81.178,22.395 81.178,23.009 C81.178,38.041 72.474,51.232 62.570,51.232 C53.066,51.232 44.763,39.063 44.062,24.747 C46.663,25.258 49.265,25.463 51.666,25.463 ZM4.246,50.005 L5.646,44.892 C6.847,40.700 9.348,39.472 14.350,38.245 C14.650,38.143 14.950,38.041 15.150,37.836 C15.650,38.245 16.051,38.552 16.651,38.859 C16.951,39.063 17.251,39.063 17.551,39.063 C18.252,39.063 18.952,38.654 19.352,37.938 C19.852,36.916 19.452,35.689 18.552,35.178 C15.951,33.746 14.050,29.758 14.050,25.667 C14.050,22.191 16.751,19.430 20.152,19.430 C21.253,19.430 22.153,19.634 23.054,20.145 C23.354,20.248 23.554,20.350 23.854,20.350 C23.354,21.884 23.054,23.520 23.054,25.258 C23.054,31.087 24.954,36.814 27.956,40.802 C21.953,42.336 16.651,44.381 13.150,50.005 L4.246,50.005 L4.246,50.005 ZM101.687,90.296 C101.486,90.500 101.086,90.909 100.386,90.909 L86.880,90.909 L83.479,90.909 L23.454,90.909 C22.754,90.909 22.353,90.500 22.153,90.296 C21.853,89.887 21.753,89.273 21.853,88.864 L26.055,73.934 C28.056,66.878 33.558,61.356 40.561,59.515 L41.761,59.209 C42.062,59.106 42.562,59.311 42.862,59.618 C48.364,66.060 55.167,66.571 61.770,66.571 C68.373,66.571 75.175,66.060 80.678,59.618 C80.978,59.311 81.378,59.106 81.878,59.209 L83.079,59.515 C89.982,61.356 95.584,66.878 97.585,73.934 L99.386,80.274 C99.486,80.581 99.586,80.785 99.786,80.990 L101.987,88.762 C102.087,89.273 101.987,89.887 101.687,90.296 Z"/>
</svg>