<?xml version="1.0" encoding="iso-8859-1"?>
<!-- Generator: Adobe Illustrator 19.0.0, SVG Export Plug-In . SVG Version: 6.00 Build 0)  -->
<svg xmlns="http://www.w3.org/2000/svg" xmlns:xlink="http://www.w3.org/1999/xlink" version="1.1" id="Capa_1" x="0px" y="0px" viewBox="0 0 448.25 448.25" style="enable-background:new 0 0 448.25 448.25;" xml:space="preserve" width="512px" height="512px">
<g>
	<g>
		<path d="M352.992,23.661C341.84,13.165,327.568,8.125,313.184,8.125c-16.192,0-32.544,6.384-44.736,18.592l-5.232,5.232    l-5.232-5.248C245.792,14.509,229.44,8.125,213.248,8.125c-14.384,0-28.656,5.04-39.808,15.536    c-24.528,23.088-24.96,61.712-1.312,85.36l91.088,91.088l91.088-91.088C377.952,85.373,377.52,46.749,352.992,23.661z" fill="#FFFFFF"/>
	</g>
</g>
<g>
	<g>
		<path d="M442.4,246.493c-14-9.488-30.496-6.8-45.104,1.632c-14.608,8.432-98.48,80.144-98.48,80.144l-82.56,0.016    c-3.84,0-8-4.32-8-8.144c0-4.496,3.92-8,8-8h50.512c17.68,0,37.472-11.52,37.472-32c0-21.76-19.792-32-37.472-32    c-30.672,0-36.64,0.128-36.64,0.128c-12.288,0-24.752-0.736-34.352-5.872c-12.8-6.56-27.552-10.272-43.296-10.272    c-26.432,0-50.096,10.544-66.32,27.168L0,344.125l96,96l32-32h162.032c16.128,0,31.696-5.92,43.744-16.624l109.712-123.072    C450.192,262.477,449.808,251.533,442.4,246.493z" fill="#FFFFFF"/>
	</g>
</g>
<g>
</g>
<g>
</g>
<g>
</g>
<g>
</g>
<g>
</g>
<g>
</g>
<g>
</g>
<g>
</g>
<g>
</g>
<g>
</g>
<g>
</g>
<g>
</g>
<g>
</g>
<g>
</g>
<g>
</g>
</svg>
