<svg xmlns="http://www.w3.org/2000/svg" width="511.563" height="511.688" viewBox="0 0 511.563 511.688">
  <metadata><?xpacket begin="﻿" id="W5M0MpCehiHzreSzNTczkc9d"?>
<x:xmpmeta xmlns:x="adobe:ns:meta/" x:xmptk="Adobe XMP Core 5.6-c142 79.160924, 2017/07/13-01:06:39        ">
   <rdf:RDF xmlns:rdf="http://www.w3.org/1999/02/22-rdf-syntax-ns#">
      <rdf:Description rdf:about=""/>
   </rdf:RDF>
</x:xmpmeta>
                                                                                                    
                                                                                                    
                                                                                                    
                                                                                                    
                                                                                                    
                                                                                                    
                                                                                                    
                                                                                                    
                                                                                                    
                                                                                                    
                                                                                                    
                                                                                                    
                                                                                                    
                                                                                                    
                                                                                                    
                                                                                                    
                                                                                                    
                                                                                                    
                                                                                                    
                                                                                                    
                           
<?xpacket end="w"?></metadata>
<defs>
    <style>
      .cls-1 {
        fill: #fff;
      }

      .cls-1, .cls-2 {
        fill-rule: evenodd;
      }
    </style>
  </defs>
  <path class="cls-1" d="M16,271l4-41,60-6,25-63L58,110l45-42,51,35,61-31,1-53h69l8,51s116,54,143,147l61,11-5,54-56,13-30,63,36,43-35,42-58-29-57,19-13,63-66,1,2-60S86,376,73,286H26Z" transform="translate(-0.438 -0.313)"/>
  <path class="cls-1" d="M61,411L298,158s64,31,56,59L107,456Z" transform="translate(-0.438 -0.313)"/>
  <path class="cls-1" d="M365,105s32,29,38,44l46-38L397,61Z" transform="translate(-0.438 -0.313)"/>
  <path class="cls-1" d="M405,60l43,45,58-45L448,11Z" transform="translate(-0.438 -0.313)"/>
  <path class="cls-1" d="M31,466l30-51,37,44L22,495Z" transform="translate(-0.438 -0.313)"/>
  <path id="Forma_1" data-name="Forma 1" class="cls-2" d="M480.687,213.812H443.76a190.489,190.489,0,0,0-22.3-55.3l87.406-87.434a10.678,10.678,0,0,0,0-15.053L456.994,4.141a10.669,10.669,0,0,0-15.048,0L354.54,91.575a190.33,190.33,0,0,0-55.282-22.312V32.325A32.022,32.022,0,0,0,267.242.3H235.225a32.023,32.023,0,0,0-32.017,32.027V72.038A190.177,190.177,0,0,0,155.716,93.39L126.688,64.352a32.01,32.01,0,0,0-45.251,0L58.812,86.664a32.035,32.035,0,0,0,0,45.265l30.416,30.426a189.872,189.872,0,0,0-19.85,51.457H32.451A32.022,32.022,0,0,0,.434,245.839V267.19a32.023,32.023,0,0,0,32.017,32.028H69.378a190.06,190.06,0,0,0,22.2,55.3L45.045,401.17a10.681,10.681,0,0,0-2.134,3.2h0.213L1.395,497.68a10.674,10.674,0,0,0,14.087,14.092l93.276-41.742a10.67,10.67,0,0,0,3.2-2.135L158.6,421.242a190.288,190.288,0,0,0,44.61,19.75v39.714a32.022,32.022,0,0,0,32.017,32.027h32.017a32.021,32.021,0,0,0,32.016-32.027V443.768a189.637,189.637,0,0,0,51.334-19.857l25.187,24.768a32.01,32.01,0,0,0,45.25,0l22.625-22.633a32.034,32.034,0,0,0,0-45.265l-23.585-23.7a189.719,189.719,0,0,0,23.692-57.862h36.926A32.023,32.023,0,0,0,512.7,267.191V245.84A32.023,32.023,0,0,0,480.687,213.812ZM449.417,26.773L486.237,63.6,451.658,98.087,414.946,61.362ZM399.791,76.415l36.82,36.831L409.4,140.47a193.608,193.608,0,0,0-36.819-36.832ZM32.451,480.706l23.906-53.378,29.455,29.785Zm71.931-35.23L67.67,408.752,303.527,172.818a96.709,96.709,0,0,1,36.819,36.831Zm56.137-188.961a96.045,96.045,0,0,1,121.556-92.558L164.04,282.03A96.129,96.129,0,0,1,160.519,256.515ZM349.1,231A96.059,96.059,0,0,1,231.062,349.074Zm142.261,36.19a10.674,10.674,0,0,1-10.672,10.676H435.01a10.676,10.676,0,0,0-10.673,8.755A168.815,168.815,0,0,1,397.55,352.6a10.679,10.679,0,0,0,1.281,13.558l29.775,29.786a10.676,10.676,0,0,1,0,15.053l-22.625,22.952a10.668,10.668,0,0,1-15.092.062l-0.062-.062-30.95-30.959a10.668,10.668,0,0,0-13.234-1.494,168.805,168.805,0,0,1-59.978,23.059,10.676,10.676,0,0,0-8.752,10.676v45.477a10.674,10.674,0,0,1-10.672,10.676H235.224a10.675,10.675,0,0,1-10.673-10.676V432.772a10.677,10.677,0,0,0-8.217-10.676,169.285,169.285,0,0,1-42.049-16.121l39.594-40.034a117.444,117.444,0,1,0-66.7-66.722l-40.021,39.606a168.951,168.951,0,0,1-18.675-52.2,10.673,10.673,0,0,0-10.673-8.755H32.451A10.675,10.675,0,0,1,21.779,267.19V245.839a10.675,10.675,0,0,1,10.673-10.676H78.128A10.674,10.674,0,0,0,88.8,226.409a169.145,169.145,0,0,1,23.052-60,10.68,10.68,0,0,0-1.494-13.239l-36.286-36.3a10.677,10.677,0,0,1,0-15.052l22.412-22.74a10.67,10.67,0,0,1,15.093-.062l0.062,0.062,35.111,35.123a10.67,10.67,0,0,0,13.554,1.281A169.121,169.121,0,0,1,216.442,90.72a10.674,10.674,0,0,0,8.217-10.676V32.325a10.675,10.675,0,0,1,10.673-10.676h32.017a10.674,10.674,0,0,1,10.672,10.676V78.016a10.676,10.676,0,0,0,8.752,10.676A170.783,170.783,0,0,1,424.552,226.41a10.674,10.674,0,0,0,10.673,8.754h45.462a10.674,10.674,0,0,1,10.672,10.676v21.351Z" transform="translate(-0.438 -0.313)"/>
</svg>
