<svg xmlns="http://www.w3.org/2000/svg" width="216" height="201" viewBox="0 0 216 201">
  <metadata><?xpacket begin="﻿" id="W5M0MpCehiHzreSzNTczkc9d"?>
<x:xmpmeta xmlns:x="adobe:ns:meta/" x:xmptk="Adobe XMP Core 5.6-c142 79.160924, 2017/07/13-01:06:39        ">
   <rdf:RDF xmlns:rdf="http://www.w3.org/1999/02/22-rdf-syntax-ns#">
      <rdf:Description rdf:about=""/>
   </rdf:RDF>
</x:xmpmeta>
                                                                                                    
                                                                                                    
                                                                                                    
                                                                                                    
                                                                                                    
                                                                                                    
                                                                                                    
                                                                                                    
                                                                                                    
                                                                                                    
                                                                                                    
                                                                                                    
                                                                                                    
                                                                                                    
                                                                                                    
                                                                                                    
                                                                                                    
                                                                                                    
                                                                                                    
                                                                                                    
                           
<?xpacket end="w"?></metadata>
<defs>
    <style>
      .cls-1, .cls-2 {
        fill: #fff;
        fill-rule: evenodd;
      }

      .cls-1 {
        stroke: #fff;
        stroke-width: 1px;
      }
    </style>
  </defs>
  <path id="Rounded_Rectangle_1" data-name="Rounded Rectangle 1" class="cls-1" d="M82.563,90.673h54.264a5.214,5.214,0,0,1,0,10.427H82.563A5.214,5.214,0,0,1,82.563,90.673Z" transform="translate(-5.5 -11.5)"/>
  <path id="Rounded_Rectangle_1_copy" data-name="Rounded Rectangle 1 copy" class="cls-1" d="M36.9,113.422h94.22a5.213,5.213,0,0,1,0,10.426H36.9A5.213,5.213,0,1,1,36.9,113.422Z" transform="translate(-5.5 -11.5)"/>
  <path id="Rounded_Rectangle_1_copy_2" data-name="Rounded Rectangle 1 copy 2" class="cls-1" d="M35,136.171h87.561a5.213,5.213,0,1,1,0,10.426H35A5.213,5.213,0,1,1,35,136.171Z" transform="translate(-5.5 -11.5)"/>
  <path id="Rounded_Rectangle_1_copy_3" data-name="Rounded Rectangle 1 copy 3" class="cls-1" d="M35,159.867h81.853a5.214,5.214,0,0,1,0,10.427H35A5.214,5.214,0,0,1,35,159.867Z" transform="translate(-5.5 -11.5)"/>
  <path id="Forma_1" data-name="Forma 1" class="cls-2" d="M48.006,104.867H58.827v-7.83c7.912-1.917,12.79-7.427,12.79-14.741h0c0-7.486-3.964-12.07-13.263-15.331h0c-3.413-1.244-7.36-2.875-7.36-4.336h0c0-1.921,2.692-2.214,4.292-2.214h0a20.268,20.268,0,0,1,9.463,2.305h0l2.058,0.987,0.652-2.174,2.564-9.669L68.6,51.189a27.011,27.011,0,0,0-9.409-2.4h0V42.3H48.367v7.269c-7.514,1.959-12.144,7.29-12.144,14.292h0c0,9.025,7.6,12.745,14.219,14.982h0c5.624,1.9,6.4,3.276,6.4,4.469h0c0,1.778-2.553,2.574-5.083,2.574h0A23.592,23.592,0,0,1,40.74,82.941h0L38.6,81.771l-3.116,12.21v0l1.278,0.708a30.246,30.246,0,0,0,11.239,3.1h0v7.077Z" transform="translate(-5.5 -11.5)"/>
  <path class="cls-1" d="M155.358,95.412L165.823,79.3l-0.951-20.853L116.354,12H27.881S6.476,15.081,6,38.54V190.2S6,211.052,31.686,212H145.845s18.551-4.739,19.978-24.645v-26.54l-9.513,12.322-0.952,18.01s1.665,9.479-16.172,9.479H30.735S17.654,205.6,17.416,180.72V35.7s-1.9-13.27,12.367-13.27H109.7V47.071s5.47,20.142,28.54,19.905h17.123V95.412Z" transform="translate(-5.5 -11.5)"/>
  <path class="cls-1" d="M126.819,179.773s-1.713,7.772,3.8,4.739c0,0,18.709-8.847,74.2-103.318l5.708,1.9L186.752,124.8s-1.9,7.583,2.854,8.531L221,82.142l-12.367-8.531s8.562-12.638-2.854-18.01c0,0-1.9-5.055-11.416.948C194.363,56.55,129.355,155.444,126.819,179.773Z" transform="translate(-5.5 -11.5)"/>
</svg>
